Address	Unit	Zip	GArea	LArea	Be	Ba	Pool	WF	Built	Frclosure	"Sold Price"	Taxable	Land_V	Building_V
"4957 RIVERSIDE DR"	1003	33067	1800	1800	4	2.5	N	N	1991	N	100.00	121450.00	14940.00	134460.00
"5406 GODFREY RD"		33067	1982	1982	3	2.0	Y	N	1971	N	100.00	238730.00	381150.00	114560.00
"7930 NW 37TH DR"	1-2	33065	2848	2848	4	0.0	N	N	1971	N	158500.00	135440.00	62970.00	95440.00
"4141 NW 114TH AVE"		33065	3601	3601	8	0.0	N	N	1984	N	190000.00	192990.00	89430.00	174740.00
"4150-4160 CORAL SPRINGS DR"		33065	4570	4570	0	0.0	N	N	1981	N	155000.00	157160.00	76020.00	160670.00
"2791 NW 92ND AVE"		33065	1755	1755	3	2.0	Y	N	1983	N	100.00	134890.00	46880.00	107530.00
"2717 NW 88TH TER"		33065	2126	2126	3	2.0	Y	N	1972	N	100.00	157430.00	99190.00	98690.00
"2418 NW 89TH DR"	2418	33065	850	850	2	2.0	N	N	1985	N	100.00	35040.00	5980.00	53780.00
"7427 NW 25TH ST"		33063	1929	1929	3	2.0	N	N	1993	N	100.00	173540.00	70310.00	121340.00
"5734 NW 24TH CT"		33063	1326	1326	3	2.0	N	N	1961	N	18800.00	75930.00	35710.00	58330.00
"6692 SCHOONER TER"		33063	2327	2327	0	0.0	N	N	1993	N	136500.00	125640.00	20870.00	154210.00
"6650 ROYAL PALM BLVD"	203C	33063	900	900	2	1.5	N	N	1974	N	100.00	20070.00	2530.00	22770.00
"1122 NW 83RD AVE"		33071	2687	2687	0	0.0	Y	N	1977	N	174000.00	179710.00	80180.00	127770.00
"113 NW 118TH DR"		33071	1798	1798	3	2.5	N	N	1993	N	100.00	175150.00	28760.00	158160.00
"1002 TWIN LAKES DR"	20-A	33071	768	768	2	2.0	N	N	1983	N	100.00	27300.00	5450.00	49080.00
"654 NW 88TH DR"		33071	1663	1663	3	2.0	N	N	1994	N	100.00	148860.00	24540.00	126230.00
		33073	0	0	0	0.0	N	N	0	N	100.00	10.00	10.00	0.00
"3801 COCO LAKE DR"		33073	0	0	0	0.0	N	N	0	N	100.00	10.00	10.00	0.00
"1100 CRYSTAL LAKE DR"	210	33064	660	660	1	1.0	N	N	1974	N	100.00	21530.00	3820.00	34390.00
"2018 SE 5TH ST "		33441	0	0	0	0.0	N	N	0	N	100.00	10.00	10.00	0.00
"1316 SE 8TH ST"		33441	1760	1760	3	2.0	Y	N	1957	N	134000.00	154410.00	62940.00	144990.00
"2342 NE 26TH ST"		33064	3818	3818	3	3.0	Y	N	1963	N	100.00	891500.00	495630.00	613320.00
"2229 NE 25TH ST"		33064	2845	2845	5	3.0	Y	N	1967	N	100.00	468840.00	343180.00	139380.00
"2631 NE 19TH AVE"		33064	1909	1909	0	0.0	N	N	1957	N	100.00	155500.00	51460.00	168820.00
"1230 NE 27TH TER"		33062	2024	2024	0	0.0	N	N	1969	N	252000.00	235710.00	319200.00	84900.00
"1211 NE 27TH WAY"		33062	2098	2098	3	2.0	N	N	1957	N	315000.00	283770.00	307990.00	105320.00
"405 N OCEAN BLVD"	1820	33062	1435	1435	2	2.0	N	N	1970	N	100.00	159100.00	23980.00	215800.00
"12141 NW 26TH ST"		33323	2965	2965	5	2.5	Y	N	1998	N	100.00	277140.00	46920.00	264490.00
"12000 NW 20TH CT"		33323	3187	3187	4	3.0	Y	N	1988	N	277000.00	305770.00	151930.00	273820.00
"13761 NW 22ND ST "		33323	0	0	0	0.0	N	N	0	N	0.00	10.00	10.00	0.00
"8100 NW 100TH TER"		33321	1959	1959	3	2.0	N	N	1974	N	100.00	132310.00	22500.00	110230.00
		33321	0	0	0	0.0	N	N	0	N	845700.00	10.00	10.00	0.00
"6020 NW 78TH TER"		33321	1414	1414	2	2.0	N	N	1981	N	100.00	101370.00	16550.00	96500.00
"7121 NW 46TH CT"		33319	2467	2467	4	0.0	Y	N	1986	N	123000.00	148880.00	30010.00	132520.00
"8260 NW 46TH ST"		33351	1568	1568	0	0.0	Y	N	1978	N	110000.00	106380.00	21000.00	102400.00
"8080 NW 45TH ST"		33351	1562	1562	3	2.0	Y	N	1977	N	100.00	103930.00	20690.00	99780.00
"7860 NW 50TH ST"	304	33351	630	630	1	1.5	N	N	1982	N	100.00	29490.00	4350.00	39110.00
"7361 NW 37TH CT"		33319	2134	2134	0	0.0	N	N	1978	N	100.00	156310.00	32450.00	120120.00
"6609 RACQUET CLUB DR"	147	33319	1540	1540	3	2.5	N	N	1975	N	100.00	46200.00	5390.00	48510.00
"5053 NW 43RD CT"		33319	1360	1360	0	0.0	N	N	1970	N	100.00	47750.00	9000.00	50820.00
"9900 SUNRISE LAKES BLVD"	306	33322	640	640	1	1.0	N	N	1980	N	32000.00	12090.00	1550.00	13910.00
"10519 NW 10TH ST"	D-131	33322	1760	1760	3	2.0	N	N	1991	N	100.00	134110.00	17650.00	158820.00
"2300 S CYPRESS BND DR"	104	33069	1100	1100	2	2.0	N	N	1974	N	0.00	46130.00	6100.00	54870.00
"2681 S COURSE DR"	804	33069	1150	1150	2	2.0	N	N	1971	N	100.00	77590.00	8460.00	76100.00
		33069	0	0	0	0.0	N	N	0	N	100.00	10.00	10.00	0.00
"802 CYPRESS BLVD"	205B	33069	1575	1575	3	2.0	N	N	1978	N	100.00	98160.00	11400.00	102600.00
"5737 NE 15TH AVE"		33334	5038	5038	0	0.0	N	N	1963	N	100.00	597500.00	172170.00	568430.00
"5040-5042 NE 14TH TER"		33334	2789	2789	4	0.0	N	N	1963	N	100.00	176230.00	65030.00	151690.00
"1921-1923 NE 56TH ST"		33308	2826	2826	4	0.0	N	N	1963	N	255000.00	176860.00	60000.00	171640.00
"5555 NE 26TH AVE"		33308	2343	2343	4	2.0	Y	N	1967	N	235000.00	252430.00	211010.00	144420.00
"3005 N OAKLAND FOREST DR"	201	33309	1050	1050	2	1.0	N	N	1990	N	100.00	40040.00	5590.00	50270.00
"2116 NE 17TH TER"		33305	2473	2473	3	2.0	Y	N	1956	N	100.00	246010.00	140060.00	257990.00
"1025 NE 17TH AVE"		33304	2562	2562	0	0.0	N	N	1975	N	100.00	147910.00	54010.00	131750.00
"830 NE 14TH AVE"		33304	1252	0	2	0.0	N	N	1953	N	100.00	124740.00	39130.00	186740.00
"2934 PORT ROYALE LN"		33308	1920	1920	0	0.0	N	N	1993	N	0.00	237620.00	60880.00	225590.00
"12369 NW 1ST ST"		33325	0	0	0	0.0	N	N	0	N	0.00	10.00	10.00	0.00
		33325	0	0	0	0.0	N	N	0	N	100.00	10.00	10.00	0.00
"400 COMMODORE DR"	312	33325	1165	1165	2	2.0	N	N	1977	N	100.00	54760.00	7340.00	66050.00
"412 CAMERON DR"		33326	2650	2650	0	0.0	Y	N	1992	N	230000.00	271860.00	90520.00	260070.00
		33326	0	0	0	0.0	N	N	0	N	100.00	10.00	10.00	0.00
"13950 OAKLAWN PL"		33325	1336	1336	0	0.0	Y	N	1988	N	100.00	145190.00	59600.00	151590.00
"2730 HACKNEY RD"		33331	4013	4013	3	3.0	Y	N	1987	N	100.00	686930.00	318770.00	528940.00
"4815 GRAPEVINE WAY"		33331	1707	1707	0	0.0	N	N	1994	N	119900.00	159620.00	33370.00	135630.00
"4172 SW 21ST ST"		33317	960	960	0	0.0	N	N	1957	N	100.00	44760.00	21600.00	32200.00
"1717 WHITEHALL DR"	406	33324	1385	1385	2	2.0	N	N	1983	N	100.00	86940.00	11790.00	106140.00
"2953 OAK PARK CIR"		33328	2071	2071	3	2.0	Y	N	1990	N	100.00	274120.00	109790.00	220850.00
"3939 SW 54TH AVE"		33314	2757	2757	3	2.0	N	N	1970	N	117000.00	156860.00	120460.00	104830.00
"5090 SW 64TH AVE"	104	33314	990	990	2	2.0	N	N	1979	N	100.00	36080.00	5560.00	50020.00
"100 HENDRICKS ISLE"		33301	2147	2147	0	0.0	N	Y	1955	N	275000.00	305530.00	375000.00	190160.00
"3906 SW 12TH CT"		33312	3030	3030	0	0.0	N	N	1972	N	100.00	105100.00	19930.00	120930.00
"5770 SW 40TH AVE"		33314	1421	1421	2	1.0	N	N	1960	N	100.00	99230.00	86400.00	96450.00
"2720 SW 55TH ST"		33312	1080	1080	2	2.0	N	N	1987	N	86000.00	102520.00	11340.00	96920.00
		33029	0	0	0	0.0	N	N	0	N	100.00	10.00	10.00	0.00
"307 SW 191ST TER"		33029	2332	2332	4	2.0	N	N	1995	N	100.00	203350.00	52230.00	212000.00
"13221 LURAY RD"		33330	3291	3291	2	1.0	Y	N	1976	N	228900.00	228690.00	392040.00	168950.00
"6231 HOLATEE TRL"		33330	6759	6759	0	0.0	N	N	2004	N	270000.00	641630.00	226080.00	675590.00
"2100 NW 171ST TER"		33028	1686	1686	3	2.0	N	N	1997	N	100.00	138970.00	39300.00	167690.00
"1254 NW 163RD TER"		33028	3039	3039	4	3.0	Y	N	1998	N	100.00	342350.00	78680.00	276320.00
"339 NW 152ND AVE"		33028	2218	2218	0	0.0	N	N	1995	N	100.00	183040.00	52650.00	198810.00
"11202 NW 15TH ST"		33026	1233	1233	2	2.0	N	N	1981	N	6800.00	94360.00	20000.00	93290.00
"14932 SW 18TH ST"		33027	2630	2630	0	0.0	N	N	2000	N	100.00	188200.00	28970.00	214650.00
"2196 SW 150TH AVE"		33027	2501	2501	0	0.0	N	N	2000	N	202800.00	253400.00	52610.00	251810.00
"11688 SW 17TH CT"		33025	1260	1260	3	2.0	N	N	1996	N	192000.00	133480.00	70870.00	102390.00
"1008 NW 98TH TER"	98	33024	1264	1264	2	2.5	N	N	1983	N	100.00	78370.00	9730.00	87600.00
"2011 SW 96TH TER"		33023	1734	1734	0	0.0	N	N	1979	N	112500.00	99950.00	63480.00	50920.00
"1411 SW 97TH AVE"		33025	2107	2107	0	0.0	N	N	1991	N	0.00	178770.00	32830.00	161360.00
"9640 MILL POND DR"		33025	2438	2438	3	3.0	N	N	1990	N	100.00	151410.00	41710.00	159530.00
"6509 BOXWOOD DR"		33023	1784	1784	0	0.0	N	N	1967	N	100000.00	124750.00	52500.00	101860.00
"2831 N 38TH AVE"		33021	1994	1994	0	0.0	N	N	1981	N	133000.00	143010.00	56690.00	138990.00
"1836 N 16TH CT"		33020	1874	1874	3	0.0	N	N	1951	N	100.00	59090.00	46230.00	35740.00
"1830 DIXIANA ST"	206	33020	1168	1168	2	2.0	N	N	1968	N	45000.00	37980.00	5500.00	49540.00
"328 MONROE ST"		33019	1678	1678	4	0.0	N	N	1949	N	100.00	218030.00	143680.00	150850.00
"201 VAN BUREN ST"	301	33019	2120	2120	4	3.0	N	N	1961	N	100.00	265850.00	47940.00	431500.00
"1013 HARRISON ST"		33019	2713	2713	4	3.0	Y	N	1925	N	100.00	321960.00	99940.00	451940.00
"1734 MADISON ST"		33020	1608	1608	3	1.0	N	N	1959	N	100.00	111170.00	65440.00	63240.00
"851 THREE ISLANDS BLVD"	217	33009	800	800	1	1.0	N	N	1975	N	100.00	46530.00	7870.00	70860.00
"1501 S OCEAN DR"	603	33019	1430	1430	2	2.0	N	N	1970	N	100.00	187570.00	26200.00	235800.00
"212 HOLIDAY DR"		33009	8274	8274	6	6.0	Y	N	1981	N	700000.00	584680.00	540040.00	1754240.00
"437 GOLDEN ISLES DR"	6J	33009	1150	1150	2	2.0	N	N	1970	N	100.00	65040.00	10880.00	97930.00
