Address	Owner	"Owner Address"	"Owner City"	"Owner Country"	"Owner State"	"Owner Zip"	Lender	Amount	"Known Debt"	"D. Equity"
"17150 NE 23RD AVE"	"CLIFFORD NEEDHAM &W HILDA M LE; REM CLIFFORD & HILDA NEEDHAM TR"	"17845 NE 7 CT"	"MIAMI "	USA	FL	33162-1103	"World Savings Bank"	273000.00000	511915.85	0.00
"1136 NE 210TH TER"	"RAFAEL A MARTINEZ &W ELIZABETH M"	"1567 HILLVIEW LANE"	"TARPON SPRINGS"	USA	FL	34689	"WORLD SAVINGS & LOAN ASSN"	88000.00000	88000.00	24.43
"18833 NW 64TH CT"	"MARCO MANTILLA"	"18833 NW 64 CT"	HIALEAH		FL	33015-4714	"World Savings Bank"	31000.00000	345400.00	-197.70
"19415 NW 83RD CT"	"DOLORES ALMIRA LE; REM BARBARA A ROBERTS; REM VICTORIA A MIGUEL"	"19415 NW 83 CT"	HIALEAH	USA	FL	33015	"WORLD SAVINGS BANK FSB"	77500.00000	77500.00	70.90
"7885 NW 170TH ST"	"MANUEL I VALDES &W PASTORA"	"7885 NW 170 ST"	HIALEAH		FL	33015-3860	"World Savings Bank"	113900.00000	433900.00	-106.90
"7885 NW 170TH ST"	"MANUEL I VALDES &W PASTORA"	"7885 NW 170 ST"	HIALEAH		FL	33015-3860	"World Savings Bank"	80000.00000	433900.00	-106.90
"6658 NW 174TH LN"	"EMMA A CAMPOS"	"6658 NW 174 LN"	"MIAMI "	USA	FL	33015-4479	"World Savings Bank"	100000.00000	350000.00	-79.98
"1351 NE MIAMI GARDENS DR"	"BUCKLEY TOWERS CONDO INC"	"1321 NE MIAMI GARDENS DR"	"MIAMI "		FL	33179	"WORLD SAVINGS BANK"	72000.00000	96720.00	-79.96
"2963 NW 55TH ST"	"VICTOR ALVAREZ & YAMILLET CARRERO"	"2963 NW 55 ST"	"MIAMI "	USA	FL	33142-2835	"World Savings Bank"	55726.00000	162190.00	-79.56
"2963 NW 55TH ST"	"VICTOR ALVAREZ & YAMILLET CARRERO"	"2963 NW 55 ST"	"MIAMI "	USA	FL	33142-2835	"World Savings Bank"	120000.00000	162190.00	-79.56
"8505 NW 3RD LN"	"SARA AHUMADA"	"8505 NW 3 LN 1008"	"MIAMI "		FL	33126-3864	"World Savings Bank"	73178.00000	193807.97	-70.30
"3300 SW 88TH PL"	"ORLANDO MACHADO &W ROSA"	"3300 SW 88 PL"	"MIAMI "	USA	FL	33165-4230	"World Savings Bank"	9100.00000	112197.12	0.00
"2661 SW 156TH PL"	"GILBERT GUEDE &W JEZEL"	"2661 SW 156 PL"	"MIAMI "		FL	33185-4953	"World Savings Bank"	42490.00000	554490.00	-52.68
"15480 SW 31ST LN"	"ORLANDO OSORIO"	"15480 SW 31 LANE"	"MIAMI "		FL	33185	"World Savings Bank"	328499.00000	507603.03	-37.14
"4510 SW 135TH AVE"	"MARCOS E FALCON &W MIRIAM"	"4510 SW 135 AVE"	"MIAMI "		FL	33175-3815	"World Savings Bank Fsb"	120150.00000	467249.12	-132.64
"27101 SW 119TH CT"	"STEVEN SANTIAGO &W ANNETTE"	"27101 SW 119 CT"	"MIAMI "		FL	33032-3333	"WORLD SAVINGS AND LOAN ASSOCIA"	60000.00000	6294.35	92.48
"14275 SW 294TH ST"	"HIRAN VALLE"	"14275 SW 294 ST"	"MIAMI "		FL	33033-2905	"World Savings Bank"	191200.00000	407863.28	-201.23
