Address	Unit	"Zip Code"	GArea	LArea	Be	Ba	Pool	WF	"Year Built"	Frclosure	Lprice	MktValue	ActiveValue	"A. Equity"	"P. Equity"
"1007 SW 113TH TE"		33025	0	1703	3	2	N	N	1989	P	239900.00	215104.74	292192.06	17.90	-11.52706
"10201 SW 9 LN"		33025	0	2755	4	3	Y	N	1992	N	345000.00	253344.41	251368.61	-37.25	-36.17826
"10030 SW 23RD ST"		33025	0	1187	2	2	N	N	2007	P	169000.00	138578.90	167761.22	-0.74	-21.95218
