Address,Unit,Owner,"Owner Address","Owner City","Owner Country","Owner State","Owner Zip"
514024081110,"1007 SW 113TH TER",,"LEE JOINT TR  & SAMUEL D TRSTEE LEE","4853 SW 161 LN",MIRAMAR,,FL,33027
514119050620,"10201 SW 9TH LN",,"ALEXANDER GONZALEZ ESPINOSA","10201 SW 9 LN","PEMBROKE PINES",,FL,33025
514120300800,"10030 SW 23RD ST",,"YVONNE FULMORE","10030 SW 23 ST",MIRAMAR,,FL,33025
