Address	Unit	Zip	GArea	LArea	Be	Ba	Pool	WF	Built	Frclosure	"Sold Price"	Taxable	Land_V	Building_V
"12210 NW 77TH MNR"		33076	2995	2995	4	3.0	N	N	2003	P	451900.00	354630.00	91670.00	288130.00
"9537 KENLEY CT"		33076	3244	3244	4	3.0	N	N	2006	P	650000.00	234260.00	99400.00	231180.00
"4010 CRESCENT CREEK CT"		33073	1645	1645	0	0.0	N	N	1999	P	210000.00	166250.00	25110.00	147650.00
"5034 NW 123RD AVE"		33076	3264	3264	5	3.0	Y	Y	1998	P	665000.00	358350.00	98440.00	277500.00
"4766 NW 122ND DR"		33076	2962	2962	0	0.0	Y	N	1998	P	100.00	297460.00	96510.00	211740.00
"11627 NW 47TH CT"		33076	1494	1494	0	0.0	N	N	2000	P	188000.00	122170.00	27860.00	128510.00
"4983 NW 107TH AVE"		33076	2832	2832	0	0.0	Y	N	1993	P	385000.00	309010.00	92700.00	222940.00
"4750 NW 58TH TER"		33067	2596	2596	4	3.0	Y	N	1986	P	100.00	249060.00	87910.00	163070.00
"5095 NW 57TH WAY"		33067	3324	3324	4	3.0	N	N	1998	P	0.00	413840.00	104950.00	259020.00
"4121 NW 88TH AVE"	207	33065	825	825	2	1.0	N	N	1974	P	32000.00	21360.00	2970.00	26770.00
"2627 NW 99TH AVE"		33065	1321	1321	3	2.0	N	N	1987	P	100.00	77370.00	13060.00	68090.00
"2666 NW 99TH AVE"		33065	1321	1321	3	2.0	N	N	1986	P	79000.00	78790.00	15660.00	67890.00
"6860 NW 29TH CT"		33063	2149	2149	3	2.5	Y	N	1992	P	0.00	195420.00	55310.00	156780.00
"6687 SALTAIRE TER"		33063	1792	1792	3	2.0	N	N	2000	P	245000.00	178580.00	20560.00	176600.00
"3016 SUNSET LN"		33063	1694	1694	0	0.0	N	N	1996	P	100.00	136010.00	19620.00	116100.00
"1413 NW 63RD AVE"		33063	1181	1181	2	2.0	Y	N	1959	P	163000.00	106300.00	37530.00	91700.00
"1655 NW 69TH AVE"		33063	1122	1122	2	2.0	N	Y	1971	P	190000.00	67720.00	21000.00	49720.00
"1023 NW 84TH DR"		33071	2749	2749	0	0.0	N	N	1978	P	430000.00	239810.00	93130.00	163840.00
"1962 NW 97TH TER"		33071	2592	2592	4	2.0	Y	N	1985	P	100.00	221850.00	94500.00	160790.00
"10941 NW 21ST PL"		33071	2249	2249	0	0.0	Y	N	1981	P	162000.00	177760.00	71300.00	142360.00
"11303 LAKEVIEW DR"	8-M	33071	2105	2105	3	2.5	N	N	1990	P	210000.00	131130.00	16880.00	151940.00
"150 NW 112TH LN"		33071	2786	2786	4	2.0	Y	N	1985	P	100.00	276300.00	60770.00	233920.00
"9266 W ATLANTIC BLVD"	1031	33071	986	986	2	2.0	N	N	1991	P	100.00	56720.00	8610.00	77450.00
"123 NW 60TH AVE"		33063	1271	1271	2	2.0	N	N	1979	P	125000.00	57210.00	16020.00	57200.00
"6691 NW 6TH CT"		33063	1559	1559	3	2.0	Y	N	1967	P	100.00	131030.00	33600.00	97430.00
"6581 NW 1ST ST"		33063	1937	1937	3	2.0	Y	N	1971	P	110000.00	109960.00	21020.00	107180.00
"363 SW 33RD AVE"		33442	1724	1724	4	2.0	Y	N	1973	P	160000.00	134820.00	38260.00	91640.00
"6172 NW 45TH AVE"		33073	2482	2482	0	0.0	Y	N	1992	P	175500.00	196360.00	75000.00	198000.00
"5161 NW 45TH AVE"		33073	2547	2547	4	2.0	Y	N	1989	P	175000.00	258230.00	81540.00	182040.00
"3790 WOODFIELD DR"		33073	2468	2468	0	0.0	Y	N	2002	P	259400.00	227720.00	50050.00	216910.00
"2811 SW 13TH CT"		33442	2385	2385	0	0.0	N	N	1980	P	335000.00	169590.00	42010.00	138270.00
"2058 DISCOVERY CIR E"		33442	1230	1230	0	0.0	N	N	1988	P	250000.00	94100.00	32890.00	68530.00
"1300 SW 9TH AVE"		33441	1562	1562	3	1.0	N	N	1964	P	139000.00	79760.00	15400.00	60280.00
"4413 NW 6TH AVE"		33064	1052	1052	0	0.0	N	N	1982	P	106000.00	50800.00	13740.00	39870.00
"4304 NW 9TH AVE"	2-3A	33064	1040	1040	2	2.0	N	N	1987	P	149000.00	27740.00	5620.00	50550.00
"4314 NW 9TH AVE"	5-1B	33064	695	695	1	1.5	N	N	1987	P	100.00	18520.00	3750.00	33770.00
"4490 BANYAN TRAILS DR"		33073	2608	2608	4	2.0	N	N	2001	P	100.00	277030.00	55550.00	199570.00
"2820 NW 52ND TER"		33063	2086	2086	0	0.0	Y	N	1980	P	185000.00	201130.00	80520.00	127020.00
"4450 NW 30TH ST"	312	33066	1298	1298	2	2.0	N	N	1992	P	217000.00	68310.00	8880.00	79930.00
"241 NE 26TH ST"		33064	1122	1122	2	1.5	N	N	1959	P	120000.00	66100.00	21260.00	47210.00
"3900 NW 23RD PL"		33066	1997	1997	3	2.0	N	N	1994	P	0.00	151990.00	42600.00	101600.00
"1796 SATINWOOD CIR"		33063	1622	1622	2	2.0	N	N	1983	P	180000.00	93080.00	22610.00	76400.00
"707 NW 3RD AVE"		33060	1171	1171	0	0.0	N	N	1944	P	15500.00	32370.00	24980.00	10610.00
"1549 NE 48TH ST"		33064	611	611	0	0.0	N	N	1955	P	65000.00	37170.00	22500.00	31850.00
"2200 NE 48TH CT"		33064	1645	1645	4	3.0	N	N	1956	P	100.00	448890.00	360000.00	171390.00
"1820 NE 42ND ST"		33064	1735	1735	0	0.0	Y	N	1957	P	115000.00	73970.00	21900.00	73640.00
"1961 NE 29TH ST"		33064	1722	1722	3	2.0	N	N	1957	P	305000.00	251540.00	63060.00	207720.00
"2880 NE 14TH ST"	707	33062	1800	1800	2	2.0	N	N	1999	P	100.00	259670.00	34430.00	309860.00
"2464 CORDOBA BND"		33327	1851	1851	4	2.5	N	Y	2000	P	270000.00	195610.00	41650.00	173410.00
"1342 VERACRUZ LN"	5-8	33327	1443	1443	0	0.0	N	N	1996	P	350000.00	163370.00	42050.00	133870.00
"4650 NW 113TH AVE"		33323	1322	1322	0	0.0	Y	N	1983	P	100.00	120150.00	51980.00	76280.00
"2900 NW 125TH AVE"	3-425	33323	1174	1174	2	2.0	N	N	2007	P	336200.00	126790.00	15850.00	142640.00
"4301 NW 115TH TER"		33323	1685	1685	3	2.0	N	N	1980	P	100.00	126970.00	51750.00	97060.00
"11921 NW 34TH PL"		33323	1832	1832	4	2.0	N	N	1980	P	0.00	124540.00	40500.00	99510.00
"11446 NW 33RD ST"		33323	1726	1726	0	0.0	N	N	2004	P	100.00	117400.00	16460.00	115800.00
"3885 NW 122ND TER"	1-U	33323	750	750	1	1.0	N	N	1993	P	160000.00	32510.00	5800.00	52170.00
"12100 NW 18TH ST"		33323	3986	3986	0	0.0	N	N	2000	P	87000.00	453070.00	165290.00	339400.00
"11335 NW 18TH CT"		33323	5681	5681	5	5.5	N	Y	2003	P	775000.00	683120.00	168180.00	503100.00
"6563 SW 10TH CT"		33068	1817	1817	0	0.0	N	N	1969	P	198000.00	93810.00	19500.00	74310.00
"6709 BLVD OF CHAMPIONS"		33068	1343	1343	2	2.0	Y	N	1972	P	100.00	89720.00	36900.00	67500.00
"540 SW 63RD TER"		33068	1705	1705	0	0.0	Y	N	1973	P	275000.00	116350.00	26520.00	115940.00
"941 W MAPLE ST"		33068	1680	1680	2	2.0	N	N	1994	P	0.00	95770.00	13530.00	87280.00
"7708 SW 6TH CT"		33068	1365	1365	0	0.0	Y	N	1977	P	108000.00	80940.00	18030.00	77240.00
"400 SW 75TH AVE"		33068	2009	2009	0	0.0	Y	N	1978	P	155000.00	130610.00	38730.00	108210.00
"407 SW 75TH WAY"		33068	1358	1358	0	0.0	N	N	1981	P	0.00	91590.00	19070.00	59080.00
"10109 NW 83RD ST"		33321	1530	1530	3	2.0	N	N	1974	P	167000.00	101200.00	19800.00	86770.00
"10538 E CLAIRMONT CIR"	206	33321	1228	1228	2	2.0	N	N	1987	P	95000.00	43740.00	5400.00	48560.00
"9101 LIME BAY BLVD"	204	33321	950	950	2	2.0	N	N	1974	P	88000.00	27590.00	3470.00	31250.00
"8100 NW 59TH ST"		33321	1237	1237	2	1.0	N	N	1971	P	195000.00	78890.00	34870.00	44020.00
"5735 TUSCANY TER"		33321	1114	1114	0	0.0	N	N	2004	P	185000.00	94440.00	24190.00	72920.00
"4551-4613 N UNIVERSITY DR"		33351	41194	41194	0	0.0	N	N	1984	P	5500000.00	3970440.00	2058270.00	1967000.00
"8201 NW 52ND ST"		33351	1979	1979	3	2.0	N	N	1986	P	174000.00	137830.00	23630.00	121330.00
"9042 NW 45TH CT"		33351	1772	1772	2	2.5	N	Y	1986	P	120800.00	76920.00	7430.00	84870.00
"9482 NW 52ND PL"		33351	1940	1940	3	2.0	N	N	1992	P	201786.00	134500.00	46760.00	124560.00
"5442 NW 90TH TER"		33351	1358	1358	2	2.0	N	N	1999	P	100.00	94450.00	18500.00	89390.00
"3836 NW 94TH WAY"		33351	1421	1421	3	2.0	N	N	1979	P	79800.00	69510.00	20520.00	70940.00
"9499 NW 42ND ST"		33351	1612	1612	0	0.0	N	N	1996	P	100.00	98220.00	7310.00	69160.00
"9191 NW 40TH PL"		33351	1405	1405	3	2.5	N	N	2004	P	205000.00	107220.00	14940.00	100790.00
"7220 SIENNA RIDGE DR"		33319	1707	1707	0	0.0	N	N	2001	P	224000.00	136020.00	32880.00	105700.00
"3360 SPANISH MOSS TER"	106	33319	1000	1000	1	1.5	N	N	1972	P	100.00	22380.00	3110.00	28030.00
"6101 N FALLS CIR DR"	308	33319	1361	1361	3	2.0	N	N	1973	P	100.00	33220.00	4400.00	39610.00
"5860 NW 44TH ST"	106	33319	1100	1100	2	2.0	N	N	1974	P	75000.00	46090.00	5030.00	45250.00
"5550 NW 44TH ST"	402B	33319	1290	1290	2	2.0	N	N	1980	P	145000.00	35230.00	4370.00	39360.00
"5021 W OAKLAND PARK BLVD"	103	33313	684	684	1	1.0	N	N	1969	P	73000.00	27730.00	3110.00	28000.00
"2712 NW 47TH LN"	2601	33313	1560	1560	3	2.0	N	N	1972	P	159900.00	27620.00	3410.00	30710.00
"2451 NW 41ST AVE"	305	33313	975	975	2	2.0	N	N	1978	P	54500.00	16580.00	2340.00	21060.00
"5322 NW 24TH ST"	138	33313	829	829	2	1.0	N	N	1980	P	100.00	16580.00	2820.00	25370.00
"2810 NW 55TH AVE"	1B	33313	1060	1060	2	2.0	N	N	1974	P	117000.00	18260.00	4770.00	42930.00
"6561 NW 25TH CT"		33313	1749	1749	3	2.0	N	N	1966	P	100.00	97850.00	40950.00	62750.00
"2011 NW 75TH AVE"		33313	1914	1914	3	2.0	Y	Y	1970	P	100.00	83190.00	48160.00	73370.00
"2140 NW 82ND TER"		33322	2129	2129	3	2.0	N	N	1970	P	100.00	120850.00	45390.00	60660.00
"9840 NW 19TH PL"		33322	1641	1641	0	0.0	N	Y	2004	P	260000.00	116590.00	17040.00	99040.00
"5701 NW 11TH ST"		33313	1849	1849	4	2.0	N	N	1971	P	100.00	88520.00	20500.00	58590.00
"1682 NW 58TH AVE"	12	33313	1800	1800	3	2.5	N	N	1972	P	54200.00	32400.00	4140.00	37260.00
"4046 NW 19TH ST"	211	33313	975	975	2	2.0	N	N	1974	P	0.00	19470.00	2430.00	21900.00
"670 SE 5TH CT"		33060	2128	2128	3	2.0	Y	Y	1959	P	0.00	304290.00	129520.00	215240.00
"611 SE 5TH AVE"		33060	1596	1596	0	0.0	Y	N	1960	P	275000.00	232590.00	127750.00	173570.00
"256 SW 9TH ST"		33060	1693	1693	0	0.0	Y	N	1958	P	144000.00	156890.00	64720.00	141510.00
"251 S CYPRESS RD"	120	33060	675	675	1	1.0	N	N	1973	P	70000.00	34470.00	5170.00	46530.00
"312 SW 1ST ST"	E-3	33060	875	875	2	2.0	N	N	1976	P	73000.00	21750.00	2890.00	26020.00
"3621 S SAHARA SPRINGS BLVD"		33069	2604	2604	0	0.0	N	N	1997	P	455700.00	176840.00	24160.00	174130.00
"801 CYPRESS BLVD"	205C	33069	1575	1575	3	2.0	N	N	1978	P	200000.00	98910.00	11400.00	102600.00
"5567 SW 6TH ST"		33068	1147	1147	2	2.0	N	N	1960	P	100.00	58060.00	21230.00	59280.00
"940 SW 55TH AVE"		33068	1713	1713	0	0.0	N	N	1980	P	100.00	103250.00	39010.00	82580.00
"5810 NE 14TH TER"		33334	2256	2256	2	2.0	Y	N	1965	P	580000.00	364060.00	213860.00	155130.00
"1601 SW 3RD AVE"		33060	1957	1957	4	2.0	Y	N	1961	P	315000.00	274820.00	150000.00	141720.00
"6121 NE 22ND AVE"		33308	1629	1629	2	1.0	N	N	1961	P	100.00	213120.00	83660.00	138170.00
"2105 NE 62ND ST"		33308	1979	1979	2	2.0	N	N	1964	P	100.00	163010.00	72910.00	187330.00
"2100 NE 63RD CT"		33308	1788	1788	3	2.0	Y	N	1963	P	376900.00	290210.00	70000.00	254970.00
"3964 NW 38TH TER"		33309	1802	1802	3	2.0	N	N	1964	P	95500.00	96210.00	14410.00	94110.00
"3129 OAKLAND SHORES DR"	A110	33309	1050	1050	2	2.0	N	N	1974	P	155000.00	41480.00	6220.00	56020.00
"1831 NW 31ST ST"		33309	1914	1914	3	2.0	N	Y	1966	P	325000.00	209820.00	76050.00	164360.00
"116 ROYAL PARK DR"	1G	33309	975	975	2	2.0	N	N	1974	P	100.00	53000.00	6910.00	62230.00
"2132 NE 44TH ST"		33308	2262	2262	3	3.0	Y	N	1959	P	100.00	377620.00	218230.00	219110.00
"3080 NE 39TH ST"		33308	6281	6281	3	5.0	Y	N	1980	P	950000.00	1037280.00	1338750.00	341900.00
"2841 NE 32ND ST"	17	33306	530	530	1	1.0	N	N	1986	P	188000.00	70580.00	7480.00	67320.00
"2101 MIDDLE RIVER DR"		33305	7304	7304	4	6.0	Y	Y	1956	P	1150000.00	1717820.00	582690.00	1433290.00
"2764 NE 15TH AVE"		33334	1422	1422	2	2.0	Y	N	1952	P	280000.00	202160.00	51980.00	178840.00
"2631 NE 14TH AVE"	309	33305	1049	1049	1	1.5	N	N	2005	P	304500.00	138440.00	20100.00	180910.00
"2124-2120 NW 2ND AVE"	1-2	33311	1881	1881	0	0.0	N	N	1963	P	74800.00	135670.00	59990.00	106330.00
"1204 NE 5TH TER"	4	33305	961	961	2	2.0	N	N	1966	P	175000.00	67280.00	6920.00	62280.00
"1421 S OCEAN BLVD"	308	33062	1014	1014	2	2.0	N	N	1981	P	100.00	164100.00	20540.00	184840.00
"5450 N OCEAN BLVD"	37-K	33308	1850	1850	3	2.0	N	N	1965	P	100.00	292230.00	28890.00	259970.00
"3500 GALT OCEAN DR"	717	33308	2124	2124	3	2.5	N	Y	1974	P	725000.00	466360.00	52900.00	476100.00
"1345 SAGO LN"		33327	1651	1651	0	0.0	N	N	1999	P	100.00	193080.00	41180.00	192020.00
"3917 E HIBISCUS ST"		33332	3481	3481	0	0.0	N	Y	2004	P	100.00	362910.00	95060.00	341800.00
"19000 SW 59TH ST"		33332	4988	4988	4	3.0	N	N	1997	P	585000.00	553610.00	279660.00	231950.00
"12360 NW 7TH ST"		33325	4782	4782	5	4.0	Y	N	1995	P	100.00	752390.00	152220.00	552950.00
"13298 NW 5TH CT"		33325	1172	1172	2	2.0	N	N	1979	P	145200.00	72090.00	24270.00	70320.00
"13412 NW 5TH CT"		33325	1593	1593	0	0.0	N	N	1994	P	100.00	122200.00	29510.00	153730.00
"150 LAKEVIEW DR"	201	33326	1225	1225	2	2.0	N	N	1978	P	170000.00	77420.00	11560.00	104060.00
"438 LAKEVIEW DR"	202	33326	1175	1175	2	2.0	N	N	1982	P	100.00	82190.00	12150.00	109320.00
"1160 FAIRFAX LN"		33326	3198	3198	5	3.0	Y	N	1990	P	100.00	276000.00	113400.00	301080.00
"530 AUBURN WAY"		33325	1336	1336	3	2.0	N	N	1987	P	175000.00	163950.00	56530.00	134270.00
"640 CULPEPPER TER"		33325	3045	3045	0	0.0	Y	N	1992	P	260000.00	261800.00	80500.00	266850.00
"13380 SW 29TH CT"		33330	5748	5748	0	0.0	N	N	1999	P	72000.00	540110.00	108910.00	536630.00
"4307 DIAMOND ROW"		33331	2522	2522	4	2.0	N	N	1995	P	100.00	213640.00	96900.00	274020.00
"4220 FOX RIDGE DR"		33331	2712	2712	0	0.0	N	N	1998	P	180800.00	211390.00	74230.00	293050.00
"4064 SANDERLING LN"		33331	3645	3645	0	0.0	N	N	1999	P	323900.00	387160.00	104080.00	389610.00
"4324 PINE RIDGE CT"		33331	1704	1704	0	0.0	N	N	1998	P	100.00	145750.00	50730.00	207890.00
"11697 SW 59TH CT"		33330	2078	2078	3	2.0	Y	N	1979	P	68000.00	152470.00	45000.00	193930.00
"712 IXORA LN"		33317	2226	2226	0	0.0	Y	N	1958	P	100.00	190090.00	96250.00	194990.00
"510 NW 84TH AVE"	427	33324	1248	1248	2	2.0	N	N	2007	P	457000.00	150980.00	23090.00	207780.00
"10305 NW 6TH ST"		33324	2752	2752	0	0.0	N	N	1984	P	100.00	247270.00	104120.00	235170.00
"701 BALDWIN PALM AVE"		33324	5827	5827	0	0.0	N	Y	2006	P	800000.00	749670.00	186680.00	673750.00
"9768 SW 1ST ST"		33324	2250	2250	4	3.0	Y	N	1977	P	100.00	210170.00	53960.00	295790.00
"1041 SW 75TH AVE"		33317	2562	2562	4	2.0	Y	N	1971	P	0.00	243850.00	97880.00	184760.00
"5541 SW 3RD CT"		33317	2472	2472	4	3.0	N	N	1962	P	100.00	190790.00	77140.00	156990.00
"6331 SW 1ST CT"		33317	2936	2936	4	3.0	Y	N	1962	P	100.00	216530.00	91060.00	150550.00
"1397 SW 49TH AVE"		33317	1338	1338	0	0.0	N	N	1956	P	215000.00	72600.00	13000.00	89350.00
"1801 SW 46TH AVE"		33317	1188	1188	3	1.0	N	N	1956	P	100.00	59110.00	13000.00	72640.00
"2945 MYRTLE OAK CIR"		33328	1867	1867	3	2.0	N	N	1990	P	410000.00	204300.00	54970.00	181160.00
"3201 OLD HICKORY CT"		33328	3299	3299	0	0.0	N	N	1991	P	350000.00	278550.00	86410.00	284470.00
"7536 SW 28TH ST"	47	33314	1480	1480	3	2.0	N	N	1976	P	275000.00	83590.00	9730.00	87540.00
"5264 SW 92ND TER"		33328	1032	1032	2	1.0	N	N	1970	P	235000.00	134950.00	60000.00	76680.00
"9008 SW 55TH ST"		33328	2368	2368	3	2.0	Y	N	1978	P	100.00	153580.00	56000.00	193660.00
"5796 SW 89TH LN"		33328	2327	2327	0	2.0	N	N	1994	P	432500.00	272490.00	94220.00	179570.00
"8629 SW 51ST ST"		33328	2008	2008	0	0.0	Y	N	1978	P	225000.00	201490.00	77900.00	162870.00
"5531 SW 55TH AVE"		33314	1084	1084	2	1.5	N	N	1972	P	100.00	120520.00	62370.00	70200.00
"155 ISLE OF VENICE DR"	401	33301	800	800	2	2.0	N	N	1973	P	291000.00	150420.00	18540.00	166900.00
"2730 NW 9TH CT"		33311	779	779	3	1.0	N	N	1967	P	100.00	53910.00	11000.00	32330.00
"3390 NW 8TH CT"		33311	803	803	2	1.0	N	N	1960	P	100.00	49310.00	18160.00	54520.00
"710 CAROLINA AVE"		33312	1664	1664	0	1.0	N	N	1952	P	53600.00	72040.00	27120.00	84900.00
"611 SW 7TH AVE"		33315	1865	1865	0	0.0	N	N	1994	P	575000.00	250410.00	58280.00	222890.00
"2631 BARBARA DR"		33316	2823	2823	3	3.0	Y	N	1962	P	1300000.00	722160.00	540000.00	265580.00
"3421 SW 26TH ST"		33312	1689	1689	3	2.0	Y	N	1959	P	100.00	152230.00	72950.00	150560.00
"141 NW 4TH AVE"		33004	1736	1736	0	0.0	N	N	1975	P	100.00	78230.00	32530.00	64280.00
"19341 SW 61ST ST"		33332	2074	2074	0	0.0	N	N	2003	P	420000.00	225140.00	53210.00	200220.00
"19321 NW 10TH ST"		33029	2741	2741	4	3.0	N	N	1994	P	315000.00	223070.00	66590.00	254170.00
"410 NW 203RD AVE"		33029	3804	3804	4	4.0	N	N	1989	P	220000.00	292500.00	147410.00	182000.00
"541 NW 207TH AVE"		33029	1813	1813	3	2.0	N	N	1994	P	250000.00	148630.00	39480.00	154290.00
"18684 SW 17TH CT"		33029	4605	4605	0	0.0	N	N	2004	P	627600.00	438100.00	109830.00	452080.00
"18730 SW 25TH CT"		33029	1649	1649	0	0.0	N	N	2001	P	165200.00	165010.00	36020.00	148290.00
"12103 LYMESTONE WAY"		33026	2091	2091	0	0.0	N	N	1980	P	261500.00	240450.00	78260.00	207350.00
"900 NW 166TH AVE"		33028	1855	1855	3	2.0	N	N	1995	P	100.00	177040.00	54780.00	173560.00
"1548 NW 159TH AVE"		33028	2903	2903	0	0.0	N	N	1998	P	188000.00	213030.00	36830.00	268880.00
"14348 NW 15TH ST"		33028	2023	2023	0	0.0	N	N	1998	P	100.00	169720.00	45080.00	219150.00
"11310 NW 23RD ST"		33026	2449	2449	0	0.0	Y	N	1978	P	370000.00	218420.00	129250.00	152800.00
"13055 NW 9TH CT"		33028	1582	1582	0	0.0	N	N	2000	P	100.00	137200.00	31340.00	134590.00
"14634 SW 5TH ST"	1-5	33027	1346	1346	2	2.0	N	N	2006	P	307000.00	143200.00	34200.00	148680.00
"16850 SW 1ST MNR"		33027	1658	1658	3	2.0	N	N	1997	P	215000.00	164490.00	33520.00	142390.00
"1080 SW 171ST TER"		33027	3110	3110	0	0.0	N	N	2002	P	100.00	234430.00	52780.00	267140.00
"15761 SW 20TH ST"		33027	1950	1950	0	0.0	N	N	1999	P	175000.00	200000.00	30290.00	220020.00
"15033 SW 21ST ST"		33027	2630	2630	0	0.0	N	N	2001	P	199200.00	216640.00	30400.00	229640.00
"15231 SW 20TH ST"		33027	4321	4321	0	0.0	N	N	2001	P	100.00	258880.00	80320.00	284900.00
"2081 SW 164TH AVE"		33027	3727	3727	0	0.0	N	N	2000	P	485000.00	280140.00	67750.00	289540.00
"11664 SW 19TH ST"		33025	1260	1260	3	2.0	N	N	1997	P	159000.00	118180.00	53710.00	101390.00
"1811 SW 112TH TER"		33025	1268	1268	3	2.0	N	N	1998	P	106000.00	114460.00	49580.00	101030.00
"12841 SW 30TH ST"	104	33027	1396	1396	2	2.5	N	N	2002	P	100.00	96670.00	13870.00	124830.00
"3168 SW 142ND AVE"		33027	2094	2094	0	0.0	N	N	2001	P	187900.00	200920.00	41840.00	210300.00
"3637 SW 162ND AVE"		33027	3031	3031	0	0.0	N	N	2000	P	100.00	218130.00	50820.00	260720.00
"17150 SW 36TH CT"		33027	1590	1590	0	0.0	N	N	2001	P	183000.00	147170.00	30770.00	146090.00
"16520 SW 32ND ST"		33027	2895	2895	0	0.0	N	N	2002	P	263800.00	229980.00	42590.00	256010.00
"2665 SW 183RD AVE"		33029	3553	3553	0	0.0	Y	N	1996	P	234400.00	296280.00	47190.00	266050.00
"17417 SW 36TH ST"		33029	3725	3725	0	0.0	N	N	1999	P	340000.00	338280.00	56420.00	309800.00
"17709 SW 54TH ST"		33029	4673	4673	6	5.0	N	N	2006	P	1072900.00	522660.00	71640.00	487460.00
"4394 SW 128TH AVE"		33027	2630	2630	0	0.0	N	N	2004	P	316800.00	228750.00	35000.00	269610.00
"4562 SW 131ST TER"		33027	2978	2978	4	3.0	N	N	2005	P	417800.00	228360.00	45490.00	233800.00
"7790 NW 38TH ST"		33024	1299	1299	3	2.0	Y	N	1960	P	100.00	127300.00	52070.00	86690.00
"7261 SHERIDAN ST"		33024	78450	78450	0	0.0	N	N	1991	P	6850000.00	7391960.00	2348000.00	4195650.00
"3940 NW 94TH AVE"		33024	2853	2853	0	0.0	Y	N	1978	P	430000.00	216850.00	123680.00	122380.00
"1601 W SANDPIPER CIR"		33026	1467	1467	0	0.0	N	N	1978	P	99000.00	111640.00	27550.00	127280.00
"1341 E GOLFVIEW DR"		33026	1335	1335	3	2.0	N	N	1978	P	99700.00	96570.00	32930.00	99460.00
"1001 NW 93RD TER"		33024	1526	1526	0	0.0	N	N	1978	P	100.00	136230.00	36580.00	121660.00
"1130 NW 93RD TER"		33024	2002	2002	0	0.0	N	N	1979	P	157000.00	151540.00	50400.00	159760.00
"1740 NW 88TH TER"		33024	1946	1946	3	2.0	N	N	1971	P	224000.00	159040.00	47980.00	137400.00
"7961 NW 16TH ST"		33024	1621	1621	2	1.0	N	N	1966	P	113000.00	128290.00	30020.00	111480.00
"7880 NW 10TH ST"		33024	979	979	0	0.0	N	N	1964	P	105000.00	90580.00	30020.00	71610.00
"7221 BRANCH ST"		33024	1218	1218	3	2.0	N	N	1960	P	158000.00	90420.00	37800.00	81050.00
"7576 NW 18TH DR"		33024	1876	1876	0	0.0	N	N	2001	P	299900.00	181310.00	31890.00	178450.00
"6770 TAFT ST"		33024	1331	1331	3	2.0	N	N	1960	P	0.00	131240.00	69370.00	74670.00
"2330 N 57TH WAY"		33021	1511	1511	2	1.0	N	N	1958	P	113000.00	97000.00	37990.00	78040.00
"5633 TAYLOR ST"		33021	1236	1236	1	0.0	N	N	1948	P	100.00	70300.00	44410.00	35710.00
"401 N 73RD TER"		33024	1843	1843	3	2.0	N	N	1969	P	100.00	117180.00	37820.00	117960.00
"7620 JOHNSON ST"		33024	2109	2109	4	2.0	Y	N	1966	P	145000.00	146870.00	37520.00	129730.00
"210 SW 97TH AVE"		33025	1317	1317	3	2.0	N	N	1986	P	48600.00	96670.00	18000.00	85000.00
"10521 SW 13TH CT"		33025	2279	2279	4	2.0	N	N	1996	P	275000.00	215690.00	44590.00	207140.00
"8900 WASHINGTON BLVD"	505	33025	800	800	1	1.0	N	N	1982	P	48000.00	39200.00	5200.00	46800.00
"8600 N SHERMAN CIR"	306	33025	891	891	2	2.0	N	N	1989	P	70000.00	31480.00	5530.00	49790.00
"7420 PANAMA ST"		33023	1312	1312	2	1.0	N	N	1958	P	235000.00	77000.00	30020.00	73780.00
"7775 SHALIMAR ST"		33023	2015	2015	3	2.0	N	N	1964	P	205000.00	105450.00	30000.00	95050.00
"6852 SW 10TH CT"		33023	2506	2506	2	2.0	N	N	1961	P	110000.00	147760.00	24120.00	185720.00
"3404 SW 67TH LN"		33023	2031	2031	2	2.0	Y	N	1968	P	122000.00	131990.00	30010.00	109470.00
"7661 FAIRWAY BLVD"		33023	1941	1941	3	2.0	Y	N	1969	P	192000.00	138030.00	34290.00	99990.00
"7712 HARBOUR BLVD"		33023	1941	1941	3	2.0	Y	N	1971	P	100.00	118450.00	48270.00	86760.00
"2816 CRESCENT PL"		33025	2239	2239	4	2.0	Y	N	1974	P	250000.00	164520.00	26260.00	154550.00
"3390 FOXCROFT RD"	C206	33025	1100	1100	2	2.0	N	N	1984	P	104000.00	33860.00	5830.00	52490.00
"4326 VAN BUREN ST"		33021	2039	2039	3	2.0	Y	N	1964	P	390000.00	195650.00	52660.00	210460.00
"5124 TAFT ST"		33021	1848	1848	3	2.0	N	N	1967	P	100.00	163280.00	52800.00	146900.00
"2300 MCKINLEY ST"		33020	2292	2292	3	2.0	N	N	1960	P	380000.00	153070.00	13460.00	171150.00
"1831 E TRAFALGAR CIR"		33020	1872	1872	3	2.0	N	N	1997	P	0.00	192310.00	70800.00	201260.00
"1014 JEFFERSON ST"		33019	2747	2747	0	0.0	Y	N	1951	P	100.00	438840.00	168740.00	447080.00
"1604 POLK ST"		33020	1704	1704	3	0.0	N	N	1951	P	100.00	148240.00	33280.00	149940.00
"1526 HOLLYWOOD BLVD"		33020	3000	3000	4	2.0	N	N	1952	P	100.00	329330.00	62910.00	436880.00
"1899 WASHINGTON ST"	D	33020	562	562	2	1.5	N	N	1965	P	100.00	42080.00	4270.00	38450.00
"2510 PLUNKETT ST"		33020	1754	1754	3	2.0	N	N	1951	P	100.00	83300.00	19500.00	109690.00
"320 NE 12TH AVE"	502	33009	1092	1092	2	2.0	N	N	1971	P	115000.00	60270.00	7970.00	71740.00
"1000 PARKVIEW DR"	118	33009	1130	1130	2	2.0	N	N	1976	P	67000.00	80480.00	12590.00	113340.00
"2408 NE 11TH ST"	158	33009	1793	1793	3	2.5	N	N	1978	P	337000.00	175580.00	22170.00	199520.00
"200 LESLIE DR"	1125	33009	1075	1075	2	2.0	N	Y	1981	P	250000.00	116280.00	15430.00	138880.00
"1980 S OCEAN DR"	5J	33009	1240	1240	2	2.0	N	N	1971	P	100.00	187130.00	25910.00	233190.00
"1745 E HALLANDALE BEACH BLVD"	1904W	33009	920	920	1	1.5	N	N	2007	P	335000.00	172960.00	21370.00	192360.00
"218 NE 12TH AVE"	305	33009	730	730	1	1.0	N	N	1968	P	42500.00	46090.00	6070.00	54620.00
"224 SW 9TH ST"		33009	1882	1882	3	2.0	N	N	1960	P	98000.00	75840.00	23770.00	85470.00
"629 SW 3RD ST"		33009	1360	1360	2	2.0	N	N	1965	P	260000.00	177910.00	23520.00	143580.00
"3610 SW 38TH AVE"		33023	2111	2111	0	1.0	N	N	1957	P	100.00	87920.00	12000.00	104610.00
